%YAML 1.1
%TAG !u! tag:unity3d.com,2011:
--- !u!114 &11400000
MonoBehaviour:
  m_ObjectHideFlags: 0
  m_CorrespondingSourceObject: {fileID: 0}
  m_PrefabInternal: {fileID: 0}
  m_GameObject: {fileID: 0}
  m_Enabled: 1
  m_EditorHideFlags: 0
  m_Script: {fileID: 11500000, guid: 12ab5786e6535d94297322232c45949b, type: 3}
  m_Name: Hunter
  m_EditorClassIdentifier: 
  displayedName: Hunter
  description: 
  portraitTex: {fileID: 2800000, guid: 68f0fc01c0d182645bf303cbaa36b8e4, type: 3}
  abilityTex: {fileID: 2800000, guid: 00fdddcf5a54bc245b50ad755ff6c761, type: 3}
  cost: 0
  baseAttack: 2
  baseHealth: 3
  ability: 0
  specialScriptName: 
