%YAML 1.1
%TAG !u! tag:unity3d.com,2011:
--- !u!1001 &100100000
Prefab:
  m_ObjectHideFlags: 1
  serializedVersion: 2
  m_Modification:
    m_TransformParent: {fileID: 0}
    m_Modifications: []
    m_RemovedComponents: []
  m_SourcePrefab: {fileID: 0}
  m_RootGameObject: {fileID: 1964955579870586}
  m_IsPrefabAsset: 1
--- !u!1 &1964955579870586
GameObject:
  m_ObjectHideFlags: 0
  m_CorrespondingSourceObject: {fileID: 0}
  m_PrefabInternal: {fileID: 100100000}
  serializedVersion: 6
  m_Component:
  - component: {fileID: 4290725587107664}
  - component: {fileID: 114365012868550884}
  m_Layer: 0
  m_Name: PlayerDeck
  m_TagString: Untagged
  m_Icon: {fileID: 0}
  m_NavMeshLayer: 0
  m_StaticEditorFlags: 0
  m_IsActive: 1
--- !u!4 &4290725587107664
Transform:
  m_ObjectHideFlags: 1
  m_CorrespondingSourceObject: {fileID: 0}
  m_PrefabInternal: {fileID: 100100000}
  m_GameObject: {fileID: 1964955579870586}
  m_LocalRotation: {x: -0, y: -0, z: -0, w: 1}
  m_LocalPosition: {x: 4.6, y: 5, z: -3.48}
  m_LocalScale: {x: 1, y: 1, z: 1}
  m_Children: []
  m_Father: {fileID: 0}
  m_RootOrder: 0
  m_LocalEulerAnglesHint: {x: 0, y: 0, z: 0}
--- !u!114 &114365012868550884
MonoBehaviour:
  m_ObjectHideFlags: 1
  m_CorrespondingSourceObject: {fileID: 0}
  m_PrefabInternal: {fileID: 100100000}
  m_GameObject: {fileID: 1964955579870586}
  m_Enabled: 1
  m_EditorHideFlags: 0
  m_Script: {fileID: 11500000, guid: 2770a6255e2ea6347b78d6b4b4981b1e, type: 3}
  m_Name: 
  m_EditorClassIdentifier: 
  fixedDraws:
  - {fileID: 11400000, guid: cd24f42d73969cd4babddc178bcfc0c8, type: 2}
  - {fileID: 11400000, guid: c3bea5297ae8f964e885ab1a905bd79d, type: 2}
  - {fileID: 11400000, guid: c7ad4927b2984ca4b87a5ef45d4abf4f, type: 2}
  - {fileID: 11400000, guid: c3bea5297ae8f964e885ab1a905bd79d, type: 2}
  - {fileID: 11400000, guid: cd24f42d73969cd4babddc178bcfc0c8, type: 2}
  cards:
  - {fileID: 11400000, guid: cd24f42d73969cd4babddc178bcfc0c8, type: 2}
  - {fileID: 11400000, guid: cd24f42d73969cd4babddc178bcfc0c8, type: 2}
  - {fileID: 11400000, guid: cd24f42d73969cd4babddc178bcfc0c8, type: 2}
  - {fileID: 11400000, guid: cd24f42d73969cd4babddc178bcfc0c8, type: 2}
  - {fileID: 11400000, guid: cd24f42d73969cd4babddc178bcfc0c8, type: 2}
  - {fileID: 11400000, guid: c7ad4927b2984ca4b87a5ef45d4abf4f, type: 2}
  - {fileID: 11400000, guid: c7ad4927b2984ca4b87a5ef45d4abf4f, type: 2}
  - {fileID: 11400000, guid: c7ad4927b2984ca4b87a5ef45d4abf4f, type: 2}
  - {fileID: 11400000, guid: c3bea5297ae8f964e885ab1a905bd79d, type: 2}
  - {fileID: 11400000, guid: c3bea5297ae8f964e885ab1a905bd79d, type: 2}
  cardPrefab: {fileID: 1440548863656434, guid: 485ea5848991c494bbd8b6ea83ef80d1, type: 2}
